module example.golx/luw-golx

go 1.17

require (
	github.com/rs/zerolog v1.26.1
	gitlab.com/maciekleks/golx v0.1.18
	k8s.io/api v0.23.1
)

//replace gitlab.com/maciekleks/golx => ../../golx

require (
	github.com/beorn7/perks v1.0.1 // indirect
	github.com/cespare/xxhash/v2 v2.1.2 // indirect
	github.com/go-logr/logr v1.2.2 // indirect
	github.com/gogo/protobuf v1.3.2 // indirect
	github.com/golang/protobuf v1.5.2 // indirect
	github.com/google/go-cmp v0.5.6 // indirect
	github.com/google/gofuzz v1.2.0 // indirect
	github.com/gorilla/mux v1.8.0 // indirect
	github.com/json-iterator/go v1.1.12 // indirect
	github.com/matttproud/golang_protobuf_extensions v1.0.1 // indirect
	github.com/modern-go/concurrent v0.0.0-20180306012644-bacd9c7ef1dd // indirect
	github.com/modern-go/reflect2 v1.0.2 // indirect
	github.com/prometheus/client_golang v1.11.0 // indirect
	github.com/prometheus/client_model v0.2.0 // indirect
	github.com/prometheus/common v0.32.1 // indirect
	github.com/prometheus/procfs v0.7.3 // indirect
	golang.org/x/net v0.0.0-20211216030914-fe4d6282115f // indirect
	golang.org/x/sys v0.0.0-20211216021012-1d35b9e2eb4e // indirect
	golang.org/x/text v0.3.7 // indirect
	google.golang.org/protobuf v1.27.1 // indirect
	gopkg.in/inf.v0 v0.9.1 // indirect
	gopkg.in/yaml.v2 v2.4.0 // indirect
	k8s.io/apimachinery v0.23.1 // indirect
	k8s.io/klog/v2 v2.40.1 // indirect
	k8s.io/utils v0.0.0-20211208161948-7d6a63dca704 // indirect
	sigs.k8s.io/json v0.0.0-20211208200746-9f7c6b3444d2 // indirect
	sigs.k8s.io/structured-merge-diff/v4 v4.2.0 // indirect
)
